x-axis,1
second,Volt
-2.0000E-06,+266.3316876E-03
-1.9900E-06,+5.1708542481E+00
-1.9800E-06,+5.9346733354E+00
-1.9700E-06,+266.3316876E-03
-1.9600E-06,+5.5326632895E+00
-1.9500E-06,+6.0150753446E+00
-1.9400E-06,+266.3316876E-03
-1.9300E-06,+4.7688442022E+00
-1.9200E-06,+5.9346733354E+00
-1.9100E-06,+5.9748743400E+00
-1.9000E-06,+5.7336683124E+00
-1.8900E-06,+6.0552763492E+00
-1.8800E-06,+4.6080401838E+00
-1.8700E-06,+4.6482411884E+00
-1.8600E-06,+6.0150753446E+00
-1.8500E-06,+5.0100502297E+00
-1.8400E-06,+4.6080401838E+00
-1.8300E-06,+5.1306532435E+00
-1.8200E-06,+4.8894472159E+00
-1.8100E-06,+4.8090452068E+00
-1.8000E-06,+4.8894472159E+00
-1.7900E-06,+3.2010050230E+00
-1.7800E-06,+4.7286431976E+00
-1.7700E-06,+5.5728642941E+00
-1.7600E-06,+266.3316876E-03
-1.7500E-06,+266.3316876E-03
-1.7400E-06,+266.3316876E-03
-1.7300E-06,+266.3316876E-03
-1.7200E-06,+2.1155778989E+00
-1.7100E-06,+2.6783919632E+00
-1.7000E-06,+4.6080401838E+00
-1.6900E-06,+4.9296482205E+00
-1.6800E-06,+4.9296482205E+00
-1.6700E-06,+266.3316876E-03
-1.6600E-06,+4.6482411884E+00
-1.6500E-06,+4.6080401838E+00
-1.6400E-06,+5.2110552527E+00
-1.6300E-06,+4.7286431976E+00
-1.6200E-06,+4.6080401838E+00
-1.6100E-06,+2.0753768943E+00
-1.6000E-06,+6.0150753446E+00
-1.5900E-06,+5.7336683124E+00
-1.5800E-06,+5.8944723308E+00
-1.5700E-06,+2.2763819173E+00
-1.5600E-06,+2.9597989954E+00
-1.5500E-06,+266.3316876E-03
-1.5400E-06,+4.6080401838E+00
-1.5300E-06,+4.6884421930E+00
-1.5200E-06,+4.3668341562E+00
-1.5100E-06,+5.4522612803E+00
-1.5000E-06,+4.6080401838E+00
-1.4900E-06,+5.2914572619E+00
-1.4800E-06,+266.3316876E-03
-1.4700E-06,+266.3316876E-03
-1.4600E-06,+4.5678391792E+00
-1.4500E-06,+5.9346733354E+00
-1.4400E-06,+4.6080401838E+00
-1.4300E-06,+5.8542713262E+00
-1.4200E-06,+6.0552763492E+00
-1.4100E-06,+4.7286431976E+00
-1.4000E-06,+5.0100502297E+00
-1.3900E-06,+4.7286431976E+00
-1.3800E-06,+4.6482411884E+00
-1.3700E-06,+4.3668341562E+00
-1.3600E-06,+2.5979899541E+00
-1.3500E-06,+4.6080401838E+00
-1.3400E-06,+266.3316876E-03
-1.3300E-06,+5.2110552527E+00
-1.3200E-06,+4.6080401838E+00
-1.3100E-06,+6.0552763492E+00
-1.3000E-06,+4.6080401838E+00
-1.2900E-06,+4.7688442022E+00
-1.2800E-06,+266.3316876E-03
-1.2700E-06,+4.8492462113E+00
-1.2600E-06,+5.2914572619E+00
-1.2500E-06,+4.7688442022E+00
-1.2400E-06,+4.6080401838E+00
-1.2300E-06,+5.7336683124E+00
-1.2200E-06,+5.3718592711E+00
-1.2100E-06,+4.8492462113E+00
-1.2000E-06,+4.8894472159E+00
-1.1900E-06,+3.4422110505E+00
-1.1800E-06,+2.4371859357E+00
-1.1700E-06,+4.2864321470E+00
-1.1600E-06,+4.6884421930E+00
-1.1500E-06,+2.7185929678E+00
-1.1400E-06,+4.6482411884E+00
-1.1300E-06,+6.0954773538E+00
-1.1200E-06,+4.6080401838E+00
-1.1100E-06,+5.0904522389E+00
-1.1000E-06,+5.5728642941E+00
-1.0900E-06,+266.3316876E-03
-1.0800E-06,+4.8090452068E+00
-1.0700E-06,+4.0050251149E+00
-1.0600E-06,+5.9748743400E+00
-1.0500E-06,+306.5326922E-03
-1.0400E-06,+5.9748743400E+00
-1.0300E-06,+2.8391959816E+00
-1.0200E-06,+4.5678391792E+00
-1.0100E-06,+4.6080401838E+00
-1.0000E-06,+6.0954773538E+00
-990.0E-09,+4.6482411884E+00
-980.0E-09,+5.7738693170E+00
-970.0E-09,+4.8894472159E+00
-960.0E-09,+4.6884421930E+00
-950.0E-09,+6.0954773538E+00
-940.0E-09,+4.7286431976E+00
-930.0E-09,+5.1708542481E+00
-920.0E-09,+4.8894472159E+00
-910.0E-09,+4.0050251149E+00
-900.0E-09,+266.3316876E-03
-890.0E-09,+4.6884421930E+00
-880.0E-09,+5.4120602757E+00
-870.0E-09,+4.9698492251E+00
-860.0E-09,+6.0150753446E+00
-850.0E-09,+4.6080401838E+00
-840.0E-09,+4.6080401838E+00
-830.0E-09,+6.0954773538E+00
-820.0E-09,+266.3316876E-03
-810.0E-09,+5.9748743400E+00
-800.0E-09,+4.6080401838E+00
-790.0E-09,+5.6532663032E+00
-780.0E-09,+4.6080401838E+00
-770.0E-09,+4.7688442022E+00
-760.0E-09,+4.1256281286E+00
-750.0E-09,+3.6030150689E+00
-740.0E-09,+6.0954773538E+00
-730.0E-09,+4.6080401838E+00
-720.0E-09,+4.8090452068E+00
-710.0E-09,+5.8542713262E+00
-700.0E-09,+4.5678391792E+00
-690.0E-09,+266.3316876E-03
-680.0E-09,+266.3316876E-03
-670.0E-09,+4.8090452068E+00
-660.0E-09,+2.4371859357E+00
-650.0E-09,+4.7286431976E+00
-640.0E-09,+4.8894472159E+00
-630.0E-09,+4.7286431976E+00
-620.0E-09,+6.0954773538E+00
-610.0E-09,+5.5326632895E+00
-600.0E-09,+4.8090452067E+00
-590.0E-09,+5.1306532435E+00
-580.0E-09,+4.5276381746E+00
-570.0E-09,+5.4924622849E+00
-560.0E-09,+2.2361809127E+00
-550.0E-09,+4.8492462113E+00
-540.0E-09,+4.7286431976E+00
-530.0E-09,+266.3316876E-03
-520.0E-09,+4.7286431976E+00
-510.0E-09,+4.8492462114E+00
-500.0E-09,+5.8944723308E+00
-490.0E-09,+6.0150753446E+00
-480.0E-09,+4.7286431976E+00
-470.0E-09,+4.5678391792E+00
-460.0E-09,+5.7738693170E+00
-450.0E-09,+5.4924622849E+00
-440.0E-09,+3.8040200919E+00
-430.0E-09,+5.7336683124E+00
-420.0E-09,+5.4924622849E+00
-410.0E-09,+6.0954773538E+00
-400.0E-09,+5.0904522389E+00
-390.0E-09,+266.3316876E-03
-380.0E-09,+5.2110552527E+00
-370.0E-09,+6.0954773538E+00
-360.0E-09,+4.8492462113E+00
-350.0E-09,+266.3316876E-03
-340.0E-09,+5.7738693170E+00
-330.0E-09,+4.6080401838E+00
-320.0E-09,+4.6080401838E+00
-310.0E-09,+4.6080401838E+00
-300.0E-09,+4.9296482205E+00
-290.0E-09,+5.6532663032E+00
-280.0E-09,+4.6080401838E+00
-270.0E-09,+4.6080401838E+00
-260.0E-09,+4.6080401838E+00
-250.0E-09,+4.7286431976E+00
-240.0E-09,+5.4120602757E+00
-230.0E-09,+4.6080401838E+00
-220.0E-09,+4.6080401838E+00
-210.0E-09,+1.9145728759E+00
-200.0E-09,+6.0552763492E+00
-190.0E-09,+2.4773869403E+00
-180.0E-09,+4.6080401838E+00
-170.0E-09,+5.8944723308E+00
-160.0E-09,+266.3316876E-03
-150.0E-09,+306.5326922E-03
-140.0E-09,+5.2512562573E+00
-130.0E-09,+3.7638190873E+00
-120.0E-09,+4.7688442022E+00
-110.0E-09,+266.3316876E-03
-100.0E-09,+4.7286431976E+00
-90.0E-09,+4.8492462113E+00
-80.0E-09,+2.1155778989E+00
-70.0E-09,+4.8894472159E+00
-60.0E-09,+4.6080401838E+00
-50.0E-09,+5.8542713262E+00
-40.0E-09,+266.3316876E-03
-30.0E-09,+4.6080401838E+00
-20.0E-09,+266.3316876E-03
-10.0E-09,+4.6080401838E+00
-0.0E+00,+5.7336683124E+00
+10.0E-09,+4.8492462113E+00
+20.0E-09,+4.6080401838E+00
+30.0E-09,+6.0954773538E+00
+40.0E-09,+1.8341708668E+00
+50.0E-09,+5.1708542481E+00
+60.0E-09,+4.6080401838E+00
+70.0E-09,+4.6080401838E+00
+80.0E-09,+4.4070351608E+00
+90.0E-09,+266.3316876E-03
+100.0E-09,+266.3316876E-03
+110.0E-09,+5.8542713262E+00
+120.0E-09,+5.2914572619E+00
+130.0E-09,+4.8894472159E+00
+140.0E-09,+5.0100502297E+00
+150.0E-09,+6.0954773538E+00
+160.0E-09,+4.8492462113E+00
+170.0E-09,+5.9346733354E+00
+180.0E-09,+266.3316876E-03
+190.0E-09,+4.7286431976E+00
+200.0E-09,+989.9497703E-03
+210.0E-09,+4.1256281286E+00
+220.0E-09,+5.9748743400E+00
+230.0E-09,+4.8492462113E+00
+240.0E-09,+2.3969849311E+00
+250.0E-09,+266.3316876E-03
+260.0E-09,+3.2010050230E+00
+270.0E-09,+4.6080401838E+00
+280.0E-09,+3.6030150689E+00
+290.0E-09,+2.3165829219E+00
+300.0E-09,+5.1708542481E+00
+310.0E-09,+4.5678391792E+00
+320.0E-09,+5.5326632895E+00
+330.0E-09,+5.0502512343E+00
+340.0E-09,+5.9748743400E+00
+350.0E-09,+6.0954773538E+00
+360.0E-09,+4.6080401838E+00
+370.0E-09,+4.6482411884E+00
+380.0E-09,+4.6080401838E+00
+390.0E-09,+4.6884421930E+00
+400.0E-09,+5.6934673078E+00
+410.0E-09,+4.7688442022E+00
+420.0E-09,+5.4120602757E+00
+430.0E-09,+1.3517588116E+00
+440.0E-09,+266.3316876E-03
+450.0E-09,+266.3316876E-03
+460.0E-09,+5.9748743400E+00
+470.0E-09,+4.6080401838E+00
+480.0E-09,+4.8492462113E+00
+490.0E-09,+4.8090452068E+00
+500.0E-09,+4.6080401838E+00
+510.0E-09,+266.3316876E-03
+520.0E-09,+5.8140703216E+00
+530.0E-09,+5.8542713262E+00
+540.0E-09,+3.3618090414E+00
+550.0E-09,+6.0552763492E+00
+560.0E-09,+4.7286431976E+00
+570.0E-09,+3.8844221011E+00
+580.0E-09,+4.2864321470E+00
+590.0E-09,+2.5979899541E+00
+600.0E-09,+4.7286431976E+00
+610.0E-09,+3.9246231057E+00
+620.0E-09,+2.1155778989E+00
+630.0E-09,+4.6080401838E+00
+640.0E-09,+5.9346733354E+00
+650.0E-09,+4.7688442022E+00
+660.0E-09,+6.0552763492E+00
+670.0E-09,+4.7286431976E+00
+680.0E-09,+4.8894472159E+00
+690.0E-09,+4.0050251149E+00
+700.0E-09,+4.8090452068E+00
+710.0E-09,+4.8492462113E+00
+720.0E-09,+266.3316876E-03
+730.0E-09,+4.6080401838E+00
+740.0E-09,+5.7336683124E+00
+750.0E-09,+4.6482411884E+00
+760.0E-09,+266.3316876E-03
+770.0E-09,+6.0552763492E+00
+780.0E-09,+6.0954773538E+00
+790.0E-09,+5.9748743400E+00
+800.0E-09,+4.8090452068E+00
+810.0E-09,+4.6080401838E+00
+820.0E-09,+4.2060301378E+00
+830.0E-09,+4.8894472159E+00
+840.0E-09,+4.6080401838E+00
+850.0E-09,+5.2110552527E+00
+860.0E-09,+4.5276381746E+00
+870.0E-09,+5.1708542481E+00
+880.0E-09,+5.8944723308E+00
+890.0E-09,+4.6080401838E+00
+900.0E-09,+4.7286431976E+00
+910.0E-09,+5.8140703216E+00
+920.0E-09,+5.6934673078E+00
+930.0E-09,+4.6080401838E+00
+940.0E-09,+6.0552763492E+00
+950.0E-09,+4.6080401838E+00
+960.0E-09,+5.2512562573E+00
+970.0E-09,+5.9346733354E+00
+980.0E-09,+2.0351758897E+00
+990.0E-09,+1.5929648392E+00
+1.0000E-06,+4.6080401838E+00
+1.0100E-06,+4.8894472159E+00
+1.0200E-06,+266.3316876E-03
+1.0300E-06,+5.4924622849E+00
+1.0400E-06,+4.6080401838E+00
+1.0500E-06,+266.3316876E-03
+1.0600E-06,+2.3567839265E+00
+1.0700E-06,+5.6532663032E+00
+1.0800E-06,+4.0452261195E+00
+1.0900E-06,+1.9949748851E+00
+1.1000E-06,+5.5326632895E+00
+1.1100E-06,+3.0000000000E+00
+1.1200E-06,+6.0552763492E+00
+1.1300E-06,+2.5979899541E+00
+1.1400E-06,+5.5728642941E+00
+1.1500E-06,+4.5276381746E+00
+1.1600E-06,+4.6080401838E+00
+1.1700E-06,+6.0954773538E+00
+1.1800E-06,+4.9698492251E+00
+1.1900E-06,+4.7688442022E+00
+1.2000E-06,+5.8542713262E+00
+1.2100E-06,+4.6482411884E+00
+1.2200E-06,+4.7286431976E+00
+1.2300E-06,+3.3618090414E+00
+1.2400E-06,+4.6080401838E+00
+1.2500E-06,+4.6080401838E+00
+1.2600E-06,+5.7738693170E+00
+1.2700E-06,+266.3316876E-03
+1.2800E-06,+4.8090452068E+00
+1.2900E-06,+2.3165829219E+00
+1.3000E-06,+266.3316876E-03
+1.3100E-06,+4.7286431976E+00
+1.3200E-06,+2.2361809127E+00
+1.3300E-06,+4.6080401838E+00
+1.3400E-06,+4.7688442022E+00
+1.3500E-06,+4.6080401838E+00
+1.3600E-06,+266.3316876E-03
+1.3700E-06,+4.9296482205E+00
+1.3800E-06,+266.3316876E-03
+1.3900E-06,+6.0552763492E+00
+1.4000E-06,+6.1356783584E+00
+1.4100E-06,+4.6080401838E+00
+1.4200E-06,+5.9748743400E+00
+1.4300E-06,+5.8140703216E+00
+1.4400E-06,+5.8944723308E+00
+1.4500E-06,+6.0954773538E+00
+1.4600E-06,+6.0552763492E+00
+1.4700E-06,+5.8944723308E+00
+1.4800E-06,+4.6080401838E+00
+1.4900E-06,+266.3316876E-03
+1.5000E-06,+2.0753768943E+00
+1.5100E-06,+5.7336683124E+00
+1.5200E-06,+5.8944723308E+00
+1.5300E-06,+266.3316876E-03
+1.5400E-06,+3.4020100459E+00
+1.5500E-06,+3.3216080368E+00
+1.5600E-06,+4.6080401838E+00
+1.5700E-06,+6.0954773538E+00
+1.5800E-06,+4.6080401838E+00
+1.5900E-06,+4.7286431976E+00
+1.6000E-06,+4.5678391792E+00
+1.6100E-06,+5.2914572619E+00
+1.6200E-06,+4.9296482205E+00
+1.6300E-06,+5.6934673078E+00
+1.6400E-06,+4.8090452068E+00
+1.6500E-06,+266.3316876E-03
+1.6600E-06,+2.0753768943E+00
+1.6700E-06,+4.6482411884E+00
+1.6800E-06,+5.8944723308E+00
+1.6900E-06,+6.0150753446E+00
+1.7000E-06,+4.8492462113E+00
+1.7100E-06,+5.6532663032E+00
+1.7200E-06,+829.1457519E-03
+1.7300E-06,+4.6482411884E+00
+1.7400E-06,+4.8492462113E+00
+1.7500E-06,+4.6080401838E+00
+1.7600E-06,+1.9949748851E+00
+1.7700E-06,+4.8492462113E+00
+1.7800E-06,+5.7738693170E+00
+1.7900E-06,+266.3316876E-03
+1.8000E-06,+4.6080401838E+00
+1.8100E-06,+4.8492462113E+00
+1.8200E-06,+6.0954773538E+00
+1.8300E-06,+4.6080401838E+00
+1.8400E-06,+5.9748743400E+00
+1.8500E-06,+5.2914572619E+00
+1.8600E-06,+4.2864321470E+00
+1.8700E-06,+4.7286431976E+00
+1.8800E-06,+4.6080401838E+00
+1.8900E-06,+5.0904522389E+00
+1.9000E-06,+4.6482411884E+00
+1.9100E-06,+5.3316582665E+00
+1.9200E-06,+4.6080401838E+00
+1.9300E-06,+266.3316876E-03
+1.9400E-06,+4.5678391792E+00
+1.9500E-06,+5.4522612803E+00
+1.9600E-06,+2.2361809127E+00
+1.9700E-06,+4.7688442022E+00
+1.9800E-06,+5.7738693170E+00
+1.9900E-06,+6.0150753446E+00
+2.0000E-06,+3.5628140643E+00
+2.0100E-06,+4.7286431976E+00
+2.0200E-06,+4.8492462113E+00
+2.0300E-06,+4.7688442022E+00
+2.0400E-06,+4.8492462113E+00
+2.0500E-06,+3.2010050230E+00
+2.0600E-06,+5.4924622849E+00
+2.0700E-06,+4.6080401838E+00
+2.0800E-06,+5.9748743400E+00
+2.0900E-06,+5.3718592711E+00
+2.1000E-06,+3.8442210965E+00
+2.1100E-06,+4.0854271241E+00
+2.1200E-06,+2.0351758897E+00
+2.1300E-06,+4.8090452068E+00
+2.1400E-06,+6.0954773538E+00
+2.1500E-06,+5.6532663032E+00
+2.1600E-06,+4.3266331516E+00
+2.1700E-06,+2.3165829219E+00
+2.1800E-06,+4.6080401838E+00
+2.1900E-06,+4.1658291332E+00
+2.2000E-06,+4.7286431976E+00
+2.2100E-06,+4.6080401838E+00
+2.2200E-06,+4.9296482205E+00
+2.2300E-06,+4.6080401838E+00
+2.2400E-06,+4.7688442022E+00
+2.2500E-06,+4.9296482205E+00
+2.2600E-06,+6.0954773538E+00
+2.2700E-06,+4.6482411884E+00
+2.2800E-06,+4.5678391792E+00
+2.2900E-06,+4.6482411884E+00
+2.3000E-06,+4.8090452068E+00
+2.3100E-06,+6.0954773538E+00
+2.3200E-06,+4.6080401838E+00
+2.3300E-06,+4.6080401838E+00
+2.3400E-06,+5.9346733354E+00
+2.3500E-06,+4.7286431976E+00
+2.3600E-06,+5.0502512343E+00
+2.3700E-06,+4.6080401838E+00
+2.3800E-06,+4.8090452068E+00
+2.3900E-06,+6.0552763492E+00
+2.4000E-06,+4.8894472159E+00
+2.4100E-06,+4.8492462113E+00
+2.4200E-06,-1.5025125146E+00
+2.4300E-06,+4.6080401838E+00
+2.4400E-06,+4.8894472159E+00
+2.4500E-06,+4.7688442022E+00
+2.4600E-06,+4.6080401838E+00
+2.4700E-06,+4.4874371700E+00
+2.4800E-06,+5.4522612803E+00
+2.4900E-06,+3.7236180827E+00
+2.5000E-06,+5.9346733354E+00
+2.5100E-06,+6.0150753446E+00
+2.5200E-06,+266.3316876E-03
+2.5300E-06,+4.7286431976E+00
+2.5400E-06,+4.7286431976E+00
+2.5500E-06,+4.6080401838E+00
+2.5600E-06,+4.8492462113E+00
+2.5700E-06,+4.1658291332E+00
+2.5800E-06,+6.0954773538E+00
+2.5900E-06,+4.5678391792E+00
+2.6000E-06,+5.7738693170E+00
+2.6100E-06,+4.6080401838E+00
+2.6200E-06,+5.7336683124E+00
+2.6300E-06,+5.6934673078E+00
+2.6400E-06,+266.3316876E-03
+2.6500E-06,+4.7286431976E+00
+2.6600E-06,+6.0954773538E+00
+2.6700E-06,+6.0552763492E+00
+2.6800E-06,+3.1206030138E+00
+2.6900E-06,+3.8844221011E+00
+2.7000E-06,+5.4120602757E+00
+2.7100E-06,+1.9145728759E+00
+2.7200E-06,+5.8140703216E+00
+2.7300E-06,+4.6080401838E+00
+2.7400E-06,+4.8492462113E+00
+2.7500E-06,+2.5577889495E+00
+2.7600E-06,+4.3266331516E+00
+2.7700E-06,+3.2814070322E+00
+2.7800E-06,+4.6884421930E+00
+2.7900E-06,+4.7286431976E+00
+2.8000E-06,+266.3316876E-03
+2.8100E-06,+4.6080401838E+00
+2.8200E-06,+5.7336683124E+00
+2.8300E-06,+266.3316876E-03
+2.8400E-06,+266.3316876E-03
+2.8500E-06,+6.0954773538E+00
+2.8600E-06,+5.8944723308E+00
+2.8700E-06,+266.3316876E-03
+2.8800E-06,+3.8040200919E+00
+2.8900E-06,+4.7286431976E+00
+2.9000E-06,+266.3316876E-03
+2.9100E-06,+4.7688442022E+00
+2.9200E-06,+266.3316876E-03
+2.9300E-06,+266.3316876E-03
+2.9400E-06,+4.7286431976E+00
+2.9500E-06,+2.1155778989E+00
+2.9600E-06,+3.1608040184E+00
+2.9700E-06,+4.6080401838E+00
+2.9800E-06,+4.6080401838E+00
+2.9900E-06,+6.0150753446E+00
+3.0000E-06,+3.1206030138E+00
+3.0100E-06,+3.9246231057E+00
+3.0200E-06,+4.7286431976E+00
+3.0300E-06,+3.4020100459E+00
+3.0400E-06,+4.9698492251E+00
+3.0500E-06,+5.2110552527E+00
+3.0600E-06,+266.3316876E-03
+3.0700E-06,+4.7688442022E+00
+3.0800E-06,+4.8492462113E+00
+3.0900E-06,+266.3316876E-03
+3.1000E-06,+5.7738693170E+00
+3.1100E-06,+4.6080401838E+00
+3.1200E-06,+4.5678391792E+00
+3.1300E-06,+4.6080401838E+00
+3.1400E-06,+6.0954773538E+00
+3.1500E-06,+4.6080401838E+00
+3.1600E-06,+4.8894472159E+00
+3.1700E-06,+4.6884421930E+00
+3.1800E-06,+4.6482411884E+00
+3.1900E-06,+6.0552763492E+00
+3.2000E-06,+4.9296482205E+00
+3.2100E-06,+5.0904522389E+00
+3.2200E-06,+3.9246231057E+00
+3.2300E-06,+6.0954773538E+00
+3.2400E-06,+4.6080401838E+00
+3.2500E-06,+3.7236180827E+00
+3.2600E-06,+4.6080401838E+00
+3.2700E-06,+5.8140703216E+00
+3.2800E-06,+3.5226130597E+00
+3.2900E-06,+266.3316876E-03
+3.3000E-06,+266.3316876E-03
+3.3100E-06,+4.6080401838E+00
+3.3200E-06,+266.3316876E-03
+3.3300E-06,+4.7286431976E+00
+3.3400E-06,+6.0552763492E+00
+3.3500E-06,+266.3316876E-03
+3.3600E-06,+266.3316876E-03
+3.3700E-06,+4.6884421930E+00
+3.3800E-06,+5.8140703216E+00
+3.3900E-06,+5.6130652986E+00
+3.4000E-06,+5.6532663032E+00
+3.4100E-06,+6.0552763492E+00
+3.4200E-06,+2.8391959816E+00
+3.4300E-06,+3.2412060276E+00
+3.4400E-06,+4.6080401838E+00
+3.4500E-06,+266.3316876E-03
+3.4600E-06,+5.0100502297E+00
+3.4700E-06,+4.6884421930E+00
+3.4800E-06,+4.6080401838E+00
+3.4900E-06,+5.8944723308E+00
+3.5000E-06,+2.6381909587E+00
+3.5100E-06,+4.6482411884E+00
+3.5200E-06,+2.3969849311E+00
+3.5300E-06,+3.6834170781E+00
+3.5400E-06,+4.5678391792E+00
+3.5500E-06,+2.8793969862E+00
+3.5600E-06,+6.0150753446E+00
+3.5700E-06,+5.8944723308E+00
+3.5800E-06,+4.6080401838E+00
+3.5900E-06,+6.0954773538E+00
+3.6000E-06,+4.7286431976E+00
+3.6100E-06,+4.6080401838E+00
+3.6200E-06,+4.6080401838E+00
+3.6300E-06,+6.0552763492E+00
+3.6400E-06,+2.5577889495E+00
+3.6500E-06,+4.8492462113E+00
+3.6600E-06,+5.9748743400E+00
+3.6700E-06,+5.6934673078E+00
+3.6800E-06,+5.9748743400E+00
+3.6900E-06,+5.5728642941E+00
+3.7000E-06,+4.8090452068E+00
+3.7100E-06,+266.3316876E-03
+3.7200E-06,+4.8090452068E+00
+3.7300E-06,+4.6080401838E+00
+3.7400E-06,+6.0552763492E+00
+3.7500E-06,+4.6080401838E+00
+3.7600E-06,+5.8542713262E+00
+3.7700E-06,+5.2110552527E+00
+3.7800E-06,+2.3567839265E+00
+3.7900E-06,+4.6080401838E+00
+3.8000E-06,+4.6080401838E+00
+3.8100E-06,+6.0954773538E+00
+3.8200E-06,+4.9296482205E+00
+3.8300E-06,+266.3316876E-03
+3.8400E-06,+4.3266331516E+00
+3.8500E-06,+2.9195979908E+00
+3.8600E-06,+4.8090452068E+00
+3.8700E-06,+5.6934673078E+00
+3.8800E-06,+4.9698492251E+00
+3.8900E-06,+266.3316876E-03
+3.9000E-06,+4.6482411884E+00
+3.9100E-06,+5.6532663032E+00
+3.9200E-06,+4.7286431976E+00
+3.9300E-06,+4.6482411884E+00
+3.9400E-06,+4.4472361654E+00
+3.9500E-06,+306.5326922E-03
+3.9600E-06,+5.7738693170E+00
+3.9700E-06,+4.8090452068E+00
+3.9800E-06,+266.3316876E-03
+3.9900E-06,+4.8492462113E+00
+4.0000E-06,+2.5979899541E+00
+4.0100E-06,+3.2814070322E+00
+4.0200E-06,+4.6080401838E+00
+4.0300E-06,+5.6130652986E+00
+4.0400E-06,+5.8140703216E+00
+4.0500E-06,+3.4020100459E+00
+4.0600E-06,+2.8793969862E+00
+4.0700E-06,+4.6884421930E+00
+4.0800E-06,+4.6080401838E+00
+4.0900E-06,+266.3316876E-03
+4.1000E-06,+4.6884421930E+00
+4.1100E-06,+4.5678391792E+00
+4.1200E-06,+3.4020100459E+00
+4.1300E-06,+4.6080401838E+00
+4.1400E-06,+266.3316876E-03
+4.1500E-06,+5.9748743400E+00
+4.1600E-06,+4.8090452068E+00
+4.1700E-06,+4.9698492251E+00
+4.1800E-06,+6.0150753446E+00
+4.1900E-06,+4.7286431976E+00
+4.2000E-06,+4.6080401838E+00
+4.2100E-06,+4.6080401838E+00
+4.2200E-06,+4.5678391792E+00
+4.2300E-06,+3.0000000000E+00
+4.2400E-06,+4.6080401838E+00
+4.2500E-06,+4.8492462113E+00
+4.2600E-06,+266.3316876E-03
+4.2700E-06,+4.8090452068E+00
+4.2800E-06,+6.1356783584E+00
+4.2900E-06,+4.6884421930E+00
+4.3000E-06,+4.6080401838E+00
+4.3100E-06,+4.5678391792E+00
+4.3200E-06,+4.6080401838E+00
+4.3300E-06,+2.0753768943E+00
+4.3400E-06,+4.6080401838E+00
+4.3500E-06,+4.7286431976E+00
+4.3600E-06,+266.3316876E-03
+4.3700E-06,+2.1557789035E+00
+4.3800E-06,+1.1909547932E+00
+4.3900E-06,+2.5175879449E+00
+4.4000E-06,+266.3316876E-03
+4.4100E-06,+4.6080401838E+00
+4.4200E-06,+6.0552763492E+00
+4.4300E-06,+4.8090452068E+00
+4.4400E-06,+266.3316876E-03
+4.4500E-06,+4.8492462113E+00
+4.4600E-06,+6.0552763492E+00
+4.4700E-06,+4.6482411884E+00
+4.4800E-06,+4.7286431976E+00
+4.4900E-06,+6.0954773538E+00
+4.5000E-06,+4.6080401838E+00
+4.5100E-06,+5.8944723308E+00
+4.5200E-06,+5.5728642941E+00
+4.5300E-06,+4.7688442022E+00
+4.5400E-06,+4.6080401838E+00
+4.5500E-06,+4.6080401838E+00
+4.5600E-06,+2.1557789035E+00
+4.5700E-06,+4.6080401838E+00
+4.5800E-06,+1.9949748851E+00
+4.5900E-06,+266.3316876E-03
+4.6000E-06,+266.3316876E-03
+4.6100E-06,+5.7336683124E+00
+4.6200E-06,+5.8542713262E+00
+4.6300E-06,+2.0753768943E+00
+4.6400E-06,+6.0150753446E+00
+4.6500E-06,+4.4874371700E+00
+4.6600E-06,+6.0150753446E+00
+4.6700E-06,+5.4924622849E+00
+4.6800E-06,+5.6934673078E+00
+4.6900E-06,+5.9748743400E+00
+4.7000E-06,+4.8492462113E+00
+4.7100E-06,+4.0452261195E+00
+4.7200E-06,+2.3969849311E+00
+4.7300E-06,+5.4522612803E+00
+4.7400E-06,+4.7286431976E+00
+4.7500E-06,+4.9296482205E+00
+4.7600E-06,+6.0954773538E+00
+4.7700E-06,+4.6080401838E+00
+4.7800E-06,+2.5577889495E+00
+4.7900E-06,+4.9698492251E+00
+4.8000E-06,+2.6381909587E+00
+4.8100E-06,+5.9748743400E+00
+4.8200E-06,+4.8090452068E+00
+4.8300E-06,+5.9748743400E+00
+4.8400E-06,+4.8894472159E+00
+4.8500E-06,-2.1055275835E+00
+4.8600E-06,+266.3316876E-03
+4.8700E-06,+2.5979899541E+00
+4.8800E-06,+5.4522612803E+00
+4.8900E-06,+266.3316876E-03
+4.9000E-06,+5.9748743400E+00
+4.9100E-06,+5.6130652986E+00
+4.9200E-06,+6.0552763492E+00
+4.9300E-06,+3.7236180827E+00
+4.9400E-06,+5.8944723308E+00
+4.9500E-06,+5.4924622849E+00
+4.9600E-06,+4.6080401838E+00
+4.9700E-06,+5.8542713262E+00
+4.9800E-06,+4.8090452068E+00
+4.9900E-06,+4.8492462113E+00
+5.0000E-06,+2.3567839265E+00
+5.0100E-06,+4.9698492251E+00
+5.0200E-06,+5.7738693170E+00
+5.0300E-06,+4.6080401838E+00
+5.0400E-06,+6.0552763492E+00
+5.0500E-06,+4.7286431976E+00
+5.0600E-06,+4.6482411884E+00
+5.0700E-06,+4.7286431976E+00
+5.0800E-06,+266.3316876E-03
+5.0900E-06,+266.3316876E-03
+5.1000E-06,+3.2814070322E+00
+5.1100E-06,+4.8492462113E+00
+5.1200E-06,+4.7286431976E+00
+5.1300E-06,+4.8492462113E+00
+5.1400E-06,+5.3316582665E+00
+5.1500E-06,+4.7286431976E+00
+5.1600E-06,+5.5326632895E+00
+5.1700E-06,+4.7688442022E+00
+5.1800E-06,+4.6080401838E+00
+5.1900E-06,+3.4824120551E+00
+5.2000E-06,+4.8090452068E+00
+5.2100E-06,+5.2110552527E+00
+5.2200E-06,+5.7336683124E+00
+5.2300E-06,+4.6080401838E+00
+5.2400E-06,+4.6080401838E+00
+5.2500E-06,+4.6080401838E+00
+5.2600E-06,+266.3316876E-03
+5.2700E-06,+4.6080401838E+00
+5.2800E-06,+4.1256281286E+00
+5.2900E-06,+4.8492462113E+00
+5.3000E-06,+266.3316876E-03
+5.3100E-06,+3.1608040184E+00
+5.3200E-06,+5.0502512343E+00
+5.3300E-06,+306.5326922E-03
+5.3400E-06,+5.9346733354E+00
+5.3500E-06,+4.8090452068E+00
+5.3600E-06,+3.3216080368E+00
+5.3700E-06,+4.7688442022E+00
+5.3800E-06,+2.6381909586E+00
+5.3900E-06,+6.0150753446E+00
+5.4000E-06,+4.8894472159E+00
+5.4100E-06,+668.3417335E-03
+5.4200E-06,+4.2864321470E+00
+5.4300E-06,+4.8492462113E+00
+5.4400E-06,+4.7688442022E+00
+5.4500E-06,+2.2361809127E+00
+5.4600E-06,+4.6080401838E+00
+5.4700E-06,+2.1155778989E+00
+5.4800E-06,+4.7688442022E+00
+5.4900E-06,+6.0552763492E+00
+5.5000E-06,+266.3316876E-03
+5.5100E-06,+4.6080401838E+00
+5.5200E-06,+2.7185929678E+00
+5.5300E-06,+3.7236180827E+00
+5.5400E-06,+3.7638190873E+00
+5.5500E-06,+266.3316876E-03
+5.5600E-06,+3.1608040184E+00
+5.5700E-06,+266.3316876E-03
+5.5800E-06,+4.8492462113E+00
+5.5900E-06,+4.6080401838E+00
+5.6000E-06,+2.8391959816E+00
+5.6100E-06,+5.8542713262E+00
+5.6200E-06,+4.8090452067E+00
+5.6300E-06,+5.7336683124E+00
+5.6400E-06,+4.8492462113E+00
+5.6500E-06,+4.6080401838E+00
+5.6600E-06,+3.0804020092E+00
+5.6700E-06,+4.6482411884E+00
+5.6800E-06,+4.6482411884E+00
+5.6900E-06,+5.2110552527E+00
+5.7000E-06,+4.8894472159E+00
+5.7100E-06,+2.7185929678E+00
+5.7200E-06,+1.8341708668E+00
+5.7300E-06,+4.6080401838E+00
+5.7400E-06,+6.0552763492E+00
+5.7500E-06,+4.6080401838E+00
+5.7600E-06,+4.6080401838E+00
+5.7700E-06,+4.8090452068E+00
+5.7800E-06,+6.0552763492E+00
+5.7900E-06,+4.5678391792E+00
+5.8000E-06,+6.0954773538E+00
+5.8100E-06,+5.8140703216E+00
+5.8200E-06,+6.0552763492E+00
+5.8300E-06,+5.3718592711E+00
+5.8400E-06,+4.6482411884E+00
+5.8500E-06,+2.1959799081E+00
+5.8600E-06,+4.7688442022E+00
+5.8700E-06,+2.3165829219E+00
+5.8800E-06,+4.8492462113E+00
+5.8900E-06,+266.3316876E-03
+5.9000E-06,+4.2864321470E+00
+5.9100E-06,+4.8090452068E+00
+5.9200E-06,+266.3316876E-03
+5.9300E-06,+266.3316876E-03
+5.9400E-06,+5.9748743400E+00
+5.9500E-06,+266.3316876E-03
+5.9600E-06,+5.8140703216E+00
+5.9700E-06,+4.8090452068E+00
+5.9800E-06,+4.6884421930E+00
+5.9900E-06,+989.9497703E-03
+6.0000E-06,+5.0904522389E+00
+6.0100E-06,+3.9648241103E+00
+6.0200E-06,+6.0954773538E+00
+6.0300E-06,+4.6080401838E+00
+6.0400E-06,+5.8140703216E+00
+6.0500E-06,+4.2060301378E+00
+6.0600E-06,+4.6080401838E+00
+6.0700E-06,+6.0552763492E+00
+6.0800E-06,+5.7336683124E+00
+6.0900E-06,+6.0552763492E+00
+6.1000E-06,+4.6080401838E+00
+6.1100E-06,+3.8040200919E+00
+6.1200E-06,+266.3316876E-03
+6.1300E-06,+5.7336683124E+00
+6.1400E-06,+4.7688442022E+00
+6.1500E-06,+4.7286431976E+00
+6.1600E-06,+5.6934673078E+00
+6.1700E-06,+4.6080401838E+00
+6.1800E-06,+4.1256281286E+00
+6.1900E-06,+3.6834170781E+00
+6.2000E-06,+3.0804020092E+00
+6.2100E-06,+4.5678391792E+00
+6.2200E-06,+4.8492462113E+00
+6.2300E-06,+4.6080401838E+00
+6.2400E-06,+4.6080401838E+00
+6.2500E-06,+4.6080401838E+00
+6.2600E-06,+4.8492462113E+00
+6.2700E-06,+6.0150753446E+00
+6.2800E-06,+4.5678391792E+00
+6.2900E-06,+3.6834170781E+00
+6.3000E-06,+4.6080401838E+00
+6.3100E-06,+4.4874371700E+00
+6.3200E-06,+4.6080401838E+00
+6.3300E-06,+5.1708542481E+00
+6.3400E-06,+4.0050251149E+00
+6.3500E-06,+5.8140703216E+00
+6.3600E-06,+2.5979899541E+00
+6.3700E-06,+6.0954773538E+00
+6.3800E-06,+4.6080401838E+00
+6.3900E-06,+266.3316876E-03
+6.4000E-06,+5.6934673078E+00
+6.4100E-06,+6.0954773538E+00
+6.4200E-06,+5.0100502297E+00
+6.4300E-06,+4.6884421930E+00
+6.4400E-06,+4.6080401838E+00
+6.4500E-06,+5.9346733354E+00
+6.4600E-06,+4.0452261195E+00
+6.4700E-06,+266.3316876E-03
+6.4800E-06,+5.7336683124E+00
+6.4900E-06,+4.7286431976E+00
+6.5000E-06,+3.0000000000E+00
+6.5100E-06,+4.8492462113E+00
+6.5200E-06,+6.0954773538E+00
+6.5300E-06,+4.8492462113E+00
+6.5400E-06,+4.8492462113E+00
+6.5500E-06,+5.1306532435E+00
+6.5600E-06,+4.5678391792E+00
+6.5700E-06,+4.7688442022E+00
+6.5800E-06,+4.8492462113E+00
+6.5900E-06,+4.7286431976E+00
+6.6000E-06,+6.0150753446E+00
+6.6100E-06,+4.8492462113E+00
+6.6200E-06,+4.7286431976E+00
+6.6300E-06,+4.8090452068E+00
+6.6400E-06,+266.3316876E-03
+6.6500E-06,+5.4120602757E+00
+6.6600E-06,+5.7738693170E+00
+6.6700E-06,+6.0954773538E+00
+6.6800E-06,+4.6080401838E+00
+6.6900E-06,+4.7286431976E+00
+6.7000E-06,+6.0954773538E+00
+6.7100E-06,+5.6130652986E+00
+6.7200E-06,+2.3165829219E+00
+6.7300E-06,+2.5577889495E+00
+6.7400E-06,+4.6884421930E+00
+6.7500E-06,+5.9748743400E+00
+6.7600E-06,+4.4472361654E+00
+6.7700E-06,+5.8542713262E+00
+6.7800E-06,+4.7286431976E+00
+6.7900E-06,+4.6080401838E+00
+6.8000E-06,+4.9698492251E+00
+6.8100E-06,+4.8492462113E+00
+6.8200E-06,+5.8140703216E+00
+6.8300E-06,+6.0954773538E+00
+6.8400E-06,+4.5678391792E+00
+6.8500E-06,+2.6783919632E+00
+6.8600E-06,+6.0552763492E+00
+6.8700E-06,+5.9346733354E+00
+6.8800E-06,+5.0502512343E+00
+6.8900E-06,+4.6080401838E+00
+6.9000E-06,+266.3316876E-03
+6.9100E-06,+4.6080401838E+00
+6.9200E-06,+6.0552763492E+00
+6.9300E-06,+266.3316876E-03
+6.9400E-06,+5.6532663032E+00
+6.9500E-06,+4.7286431976E+00
+6.9600E-06,+4.8090452068E+00
+6.9700E-06,+5.0502512343E+00
+6.9800E-06,+4.7286431976E+00
+6.9900E-06,+4.6080401838E+00
+7.0000E-06,+4.8090452068E+00
+7.0100E-06,+2.5577889495E+00
+7.0200E-06,+4.5678391792E+00
+7.0300E-06,+4.6080401838E+00
+7.0400E-06,+6.0954773538E+00
+7.0500E-06,+4.7688442022E+00
+7.0600E-06,+266.3316876E-03
+7.0700E-06,+4.7286431976E+00
+7.0800E-06,+4.7286431976E+00
+7.0900E-06,+6.0954773538E+00
+7.1000E-06,+4.7688442022E+00
+7.1100E-06,+3.8040200919E+00
+7.1200E-06,+266.3316876E-03
+7.1300E-06,+4.7286431976E+00
+7.1400E-06,+3.2814070322E+00
+7.1500E-06,+6.0552763492E+00
+7.1600E-06,+5.7738693170E+00
+7.1700E-06,+3.4020100459E+00
+7.1800E-06,+2.3165829219E+00
+7.1900E-06,+5.1306532435E+00
+7.2000E-06,+5.6532663032E+00
+7.2100E-06,+4.7286431976E+00
+7.2200E-06,+5.2110552527E+00
+7.2300E-06,+5.0502512343E+00
+7.2400E-06,+266.3316876E-03
+7.2500E-06,+4.7286431976E+00
+7.2600E-06,+6.0954773538E+00
+7.2700E-06,+2.9597989954E+00
+7.2800E-06,+6.0954773538E+00
+7.2900E-06,+4.8492462113E+00
+7.3000E-06,+266.3316876E-03
+7.3100E-06,+6.0954773538E+00
+7.3200E-06,+5.4120602757E+00
+7.3300E-06,+4.6080401838E+00
+7.3400E-06,+5.4924622849E+00
+7.3500E-06,+2.3165829219E+00
+7.3600E-06,+5.6130652986E+00
+7.3700E-06,+5.4120602757E+00
+7.3800E-06,+6.0954773538E+00
+7.3900E-06,+6.0954773538E+00
+7.4000E-06,+4.6080401838E+00
+7.4100E-06,+5.0100502297E+00
+7.4200E-06,+4.7286431976E+00
+7.4300E-06,+4.6080401838E+00
+7.4400E-06,+2.8793969862E+00
+7.4500E-06,+266.3316876E-03
+7.4600E-06,+3.4824120551E+00
+7.4700E-06,+4.6080401838E+00
+7.4800E-06,+5.9748743400E+00
+7.4900E-06,+266.3316876E-03
+7.5000E-06,+3.1608040184E+00
+7.5100E-06,+4.8090452068E+00
+7.5200E-06,+5.8944723308E+00
+7.5300E-06,+2.1959799081E+00
+7.5400E-06,+5.7738693170E+00
+7.5500E-06,+5.0502512343E+00
+7.5600E-06,+4.6884421930E+00
+7.5700E-06,+4.6080401838E+00
+7.5800E-06,+4.9698492251E+00
+7.5900E-06,+4.2864321470E+00
+7.6000E-06,+266.3316876E-03
+7.6100E-06,+4.6080401838E+00
+7.6200E-06,+5.2512562573E+00
+7.6300E-06,+4.6482411884E+00
+7.6400E-06,+3.2010050230E+00
+7.6500E-06,+4.6482411884E+00
+7.6600E-06,+1.7537688576E+00
+7.6700E-06,+5.6532663032E+00
+7.6800E-06,+5.6934673078E+00
+7.6900E-06,+1.7537688576E+00
+7.7000E-06,+5.7336683124E+00
+7.7100E-06,+6.0954773538E+00
+7.7200E-06,+4.6080401838E+00
+7.7300E-06,+6.0552763492E+00
+7.7400E-06,+4.6080401838E+00
+7.7500E-06,+2.9195979908E+00
+7.7600E-06,+6.0150753446E+00
+7.7700E-06,+4.7286431976E+00
+7.7800E-06,+4.7688442022E+00
+7.7900E-06,+4.8894472159E+00
+7.8000E-06,+5.4522612803E+00
+7.8100E-06,+4.8492462113E+00
+7.8200E-06,+4.9296482205E+00
+7.8300E-06,+5.9748743400E+00
+7.8400E-06,+5.3316582665E+00
+7.8500E-06,+6.0954773538E+00
+7.8600E-06,+266.3316876E-03
+7.8700E-06,+266.3316876E-03
+7.8800E-06,+5.0502512343E+00
+7.8900E-06,+5.8944723308E+00
+7.9000E-06,+6.0954773538E+00
+7.9100E-06,+2.9597989954E+00
+7.9200E-06,+4.0854271241E+00
+7.9300E-06,+4.8090452068E+00
+7.9400E-06,+4.8090452068E+00
+7.9500E-06,+4.6482411884E+00
+7.9600E-06,+6.0954773538E+00
+7.9700E-06,+5.3718592711E+00
+7.9800E-06,+2.7989949770E+00
+7.9900E-06,+2.6783919632E+00
+8.0000E-06,+4.8090452068E+00
+8.0100E-06,+4.6080401838E+00
+8.0200E-06,+5.6130652986E+00
+8.0300E-06,+2.8793969862E+00
+8.0400E-06,+4.8492462113E+00
+8.0500E-06,+5.8944723308E+00
+8.0600E-06,+5.5326632895E+00
+8.0700E-06,+4.8492462113E+00
+8.0800E-06,+4.7688442022E+00
+8.0900E-06,+266.3316876E-03
+8.1000E-06,+4.7286431976E+00
+8.1100E-06,+1.9949748851E+00
+8.1200E-06,+5.7336683124E+00
+8.1300E-06,+5.0904522389E+00
+8.1400E-06,+4.7286431976E+00
+8.1500E-06,+4.5678391792E+00
+8.1600E-06,+1.8743718714E+00
+8.1700E-06,+266.3316876E-03
+8.1800E-06,+266.3316876E-03
+8.1900E-06,+5.8542713262E+00
+8.2000E-06,+4.6080401838E+00
+8.2100E-06,+4.6884421930E+00
+8.2200E-06,+5.7336683124E+00
+8.2300E-06,+4.7286431976E+00
+8.2400E-06,+5.9748743400E+00
+8.2500E-06,+266.3316876E-03
+8.2600E-06,+4.8894472159E+00
+8.2700E-06,+4.8492462113E+00
+8.2800E-06,+266.3316876E-03
+8.2900E-06,+4.6482411884E+00
+8.3000E-06,+5.7738693170E+00
+8.3100E-06,+4.4472361654E+00
+8.3200E-06,+4.6080401838E+00
+8.3300E-06,+2.2361809127E+00
+8.3400E-06,+4.6080401838E+00
+8.3500E-06,+4.6482411884E+00
+8.3600E-06,+4.6482411884E+00
+8.3700E-06,+5.9346733354E+00
+8.3800E-06,+4.8090452068E+00
+8.3900E-06,+4.6884421930E+00
+8.4000E-06,+266.3316876E-03
+8.4100E-06,+2.5577889495E+00
+8.4200E-06,+4.7688442022E+00
+8.4300E-06,+4.7688442022E+00
+8.4400E-06,+4.6080401838E+00
+8.4500E-06,+4.6080401838E+00
+8.4600E-06,+6.0954773538E+00
+8.4700E-06,+5.3316582665E+00
+8.4800E-06,+4.6482411884E+00
+8.4900E-06,+4.2060301378E+00
+8.5000E-06,+4.9698492251E+00
+8.5100E-06,+6.0552763492E+00
+8.5200E-06,+5.0100502297E+00
+8.5300E-06,+4.8090452068E+00
+8.5400E-06,+3.5226130597E+00
+8.5500E-06,+5.8944723308E+00
+8.5600E-06,+4.5678391792E+00
+8.5700E-06,+5.3316582665E+00
+8.5800E-06,+6.0954773538E+00
+8.5900E-06,+4.7286431976E+00
+8.6000E-06,+4.6080401838E+00
+8.6100E-06,+2.9597989954E+00
+8.6200E-06,+4.6482411884E+00
+8.6300E-06,+4.6080401838E+00
+8.6400E-06,+4.6080401838E+00
+8.6500E-06,+6.0954773538E+00
+8.6600E-06,+5.6130652986E+00
+8.6700E-06,+2.7185929678E+00
+8.6800E-06,+5.0502512343E+00
+8.6900E-06,+266.3316876E-03
+8.7000E-06,+4.7286431976E+00
+8.7100E-06,+4.7688442022E+00
+8.7200E-06,+4.6080401838E+00
+8.7300E-06,+4.6080401838E+00
+8.7400E-06,+5.7738693170E+00
+8.7500E-06,+4.8492462113E+00
+8.7600E-06,+5.6532663032E+00
+8.7700E-06,+4.9296482205E+00
+8.7800E-06,+4.7688442022E+00
+8.7900E-06,+5.8140703216E+00
+8.8000E-06,+2.1557789035E+00
+8.8100E-06,+4.6080401838E+00
+8.8200E-06,+4.7688442022E+00
+8.8300E-06,+5.2110552527E+00
+8.8400E-06,+6.0954773538E+00
+8.8500E-06,+6.0552763492E+00
+8.8600E-06,+4.8492462113E+00
+8.8700E-06,+2.2763819173E+00
+8.8800E-06,+4.6080401838E+00
+8.8900E-06,+4.3668341562E+00
+8.9000E-06,+266.3316876E-03
+8.9100E-06,+4.5678391792E+00
+8.9200E-06,+2.0753768943E+00
+8.9300E-06,+587.9397243E-03
+8.9400E-06,+3.1206030138E+00
+8.9500E-06,+4.6884421930E+00
+8.9600E-06,+4.7688442022E+00
+8.9700E-06,+6.0954773538E+00
+8.9800E-06,+6.0954773538E+00
+8.9900E-06,+1.9145728759E+00
+9.0000E-06,+5.9346733354E+00
+9.0100E-06,+5.8944723308E+00
+9.0200E-06,+6.0552763492E+00
+9.0300E-06,+6.0954773538E+00
+9.0400E-06,+5.3316582665E+00
+9.0500E-06,+6.0150753446E+00
+9.0600E-06,+2.1557789035E+00
+9.0700E-06,+4.5678391792E+00
+9.0800E-06,+4.8090452068E+00
+9.0900E-06,+266.3316876E-03
+9.1000E-06,+5.1708542481E+00
+9.1100E-06,+5.9346733354E+00
+9.1200E-06,+266.3316876E-03
+9.1300E-06,+4.7286431976E+00
+9.1400E-06,+4.6080401838E+00
+9.1500E-06,+2.2361809127E+00
+9.1600E-06,+4.7286431976E+00
+9.1700E-06,+5.8140703216E+00
+9.1800E-06,+4.7286431976E+00
+9.1900E-06,+3.1608040184E+00
+9.2000E-06,+4.6080401838E+00
+9.2100E-06,+5.4522612803E+00
+9.2200E-06,+4.6482411884E+00
+9.2300E-06,+266.3316876E-03
+9.2400E-06,+266.3316876E-03
+9.2500E-06,+266.3316876E-03
+9.2600E-06,+4.7688442022E+00
+9.2700E-06,+4.6080401838E+00
+9.2800E-06,+266.3316876E-03
+9.2900E-06,+4.6080401838E+00
+9.3000E-06,+2.6381909586E+00
+9.3100E-06,+4.6080401838E+00
+9.3200E-06,+266.3316876E-03
+9.3300E-06,+4.6080401838E+00
+9.3400E-06,+4.4874371700E+00
+9.3500E-06,+6.0954773538E+00
+9.3600E-06,+2.8391959816E+00
+9.3700E-06,+4.7286431976E+00
+9.3800E-06,+6.0552763492E+00
+9.3900E-06,+4.8492462113E+00
+9.4000E-06,+4.8090452067E+00
+9.4100E-06,+2.3969849311E+00
+9.4200E-06,+4.6080401838E+00
+9.4300E-06,+2.8793969862E+00
+9.4400E-06,+266.3316876E-03
+9.4500E-06,-2.1055275835E+00
+9.4600E-06,+4.6080401838E+00
+9.4700E-06,+4.7286431976E+00
+9.4800E-06,+4.6482411884E+00
+9.4900E-06,+4.8090452068E+00
+9.5000E-06,+4.6080401838E+00
+9.5100E-06,+266.3316876E-03
+9.5200E-06,+4.6080401838E+00
+9.5300E-06,+2.2361809127E+00
+9.5400E-06,+5.9346733354E+00
+9.5500E-06,+2.2763819173E+00
+9.5600E-06,+4.6080401838E+00
+9.5700E-06,+2.7989949770E+00
+9.5800E-06,+4.7688442022E+00
+9.5900E-06,+5.0904522389E+00
+9.6000E-06,+4.7286431976E+00
+9.6100E-06,+4.8090452068E+00
+9.6200E-06,+4.8090452068E+00
+9.6300E-06,+5.2914572619E+00
+9.6400E-06,+4.8492462113E+00
+9.6500E-06,+6.0954773538E+00
+9.6600E-06,+4.8492462113E+00
+9.6700E-06,+5.6130652986E+00
+9.6800E-06,+2.2763819173E+00
+9.6900E-06,+4.5678391792E+00
+9.7000E-06,+4.8894472159E+00
+9.7100E-06,+5.4120602757E+00
+9.7200E-06,+266.3316876E-03
+9.7300E-06,+6.0150753446E+00
+9.7400E-06,+4.6482411884E+00
+9.7500E-06,+5.8944723308E+00
+9.7600E-06,+5.2914572619E+00
+9.7700E-06,+4.6080401838E+00
+9.7800E-06,+4.6080401838E+00
+9.7900E-06,+5.7336683124E+00
+9.8000E-06,+266.3316876E-03
+9.8100E-06,+6.0552763492E+00
+9.8200E-06,+5.9346733354E+00
+9.8300E-06,+5.7336683124E+00
+9.8400E-06,+4.6080401838E+00
+9.8500E-06,+6.0954773538E+00
+9.8600E-06,+6.0150753446E+00
+9.8700E-06,+1.6733668484E+00
+9.8800E-06,+6.0150753446E+00
+9.8900E-06,+2.8793969862E+00
+9.9000E-06,+4.8090452068E+00
+9.9100E-06,+4.8090452068E+00
+9.9200E-06,+4.7286431976E+00
+9.9300E-06,+4.5678391792E+00
+9.9400E-06,+4.6080401838E+00
+9.9500E-06,+266.3316876E-03
+9.9600E-06,+5.9748743400E+00
+9.9700E-06,+5.8944723308E+00
+9.9800E-06,+1.6331658438E+00
+9.9900E-06,+3.2814070322E+00
+10.0000E-06,+4.7688442022E+00
+10.0100E-06,+5.0904522389E+00
+10.0200E-06,+4.6080401838E+00
+10.0300E-06,+5.9346733354E+00
+10.0400E-06,+266.3316876E-03
+10.0500E-06,+6.0150753446E+00
+10.0600E-06,+5.8944723308E+00
+10.0700E-06,+4.6080401838E+00
+10.0800E-06,+4.7286431976E+00
+10.0900E-06,+4.6482411884E+00
+10.1000E-06,+4.9296482205E+00
+10.1100E-06,+5.5326632895E+00
+10.1200E-06,+4.6080401838E+00
+10.1300E-06,+266.3316876E-03
+10.1400E-06,+4.8894472159E+00
+10.1500E-06,+5.7738693170E+00
+10.1600E-06,+4.6482411884E+00
+10.1700E-06,+5.6130652986E+00
+10.1800E-06,+4.5678391792E+00
+10.1900E-06,+5.9346733354E+00
+10.2000E-06,+6.0954773538E+00
+10.2100E-06,+1.9547738805E+00
+10.2200E-06,+266.3316876E-03
+10.2300E-06,+266.3316876E-03
+10.2400E-06,+4.6080401838E+00
+10.2500E-06,+5.5326632895E+00
+10.2600E-06,+5.4522612803E+00
+10.2700E-06,+4.5678391792E+00
+10.2800E-06,+4.8090452068E+00
+10.2900E-06,+4.9296482205E+00
+10.3000E-06,+266.3316876E-03
+10.3100E-06,+3.3618090414E+00
+10.3200E-06,+2.0351758897E+00
+10.3300E-06,+4.9296482205E+00
+10.3400E-06,+3.4824120551E+00
+10.3500E-06,+4.7286431976E+00
+10.3600E-06,+6.0954773538E+00
+10.3700E-06,+6.0954773538E+00
+10.3800E-06,+5.5728642941E+00
+10.3900E-06,+3.4020100459E+00
+10.4000E-06,+5.8542713262E+00
+10.4100E-06,+5.4120602757E+00
+10.4200E-06,+4.6080401838E+00
+10.4300E-06,+4.8492462113E+00
+10.4400E-06,+5.4522612803E+00
+10.4500E-06,+2.2763819173E+00
+10.4600E-06,+4.8090452068E+00
+10.4700E-06,+4.6080401838E+00
+10.4800E-06,+2.7587939724E+00
+10.4900E-06,+3.6432160735E+00
+10.5000E-06,+5.9346733354E+00
+10.5100E-06,+4.7286431976E+00
+10.5200E-06,+5.6130652986E+00
+10.5300E-06,+4.5678391792E+00
+10.5400E-06,+4.6080401838E+00
+10.5500E-06,+266.3316876E-03
+10.5600E-06,+4.3668341562E+00
+10.5700E-06,+5.8140703216E+00
+10.5800E-06,+4.9296482205E+00
+10.5900E-06,+3.6432160735E+00
+10.6000E-06,+4.6482411884E+00
+10.6100E-06,+5.6130652986E+00
+10.6200E-06,+5.5326632895E+00
+10.6300E-06,+4.6080401838E+00
+10.6400E-06,+4.6080401838E+00
+10.6500E-06,+4.6080401838E+00
+10.6600E-06,+4.6080401838E+00
+10.6700E-06,+4.7688442022E+00
+10.6800E-06,+266.3316876E-03
+10.6900E-06,+4.6482411884E+00
+10.7000E-06,+4.8894472159E+00
+10.7100E-06,+5.7738693170E+00
+10.7200E-06,+266.3316876E-03
+10.7300E-06,+3.0000000000E+00
+10.7400E-06,+2.2361809127E+00
+10.7500E-06,+4.8492462113E+00
+10.7600E-06,+5.1306532435E+00
+10.7700E-06,+5.0100502297E+00
+10.7800E-06,+4.6080401838E+00
+10.7900E-06,+266.3316876E-03
+10.8000E-06,+4.7688442022E+00
+10.8100E-06,+3.0804020092E+00
+10.8200E-06,+5.0502512343E+00
+10.8300E-06,+4.7286431976E+00
+10.8400E-06,+4.5678391792E+00
+10.8500E-06,+4.5678391792E+00
+10.8600E-06,+266.3316876E-03
+10.8700E-06,+4.6080401838E+00
+10.8800E-06,+5.6532663032E+00
+10.8900E-06,+6.1356783584E+00
+10.9000E-06,+4.7688442022E+00
+10.9100E-06,+4.7688442022E+00
+10.9200E-06,+3.7236180827E+00
+10.9300E-06,+4.7286431976E+00
+10.9400E-06,+4.1658291332E+00
+10.9500E-06,+266.3316876E-03
+10.9600E-06,+5.9346733354E+00
+10.9700E-06,+5.6532663032E+00
+10.9800E-06,+4.6080401838E+00
+10.9900E-06,+4.6482411884E+00
+11.0000E-06,+4.7286431976E+00
+11.0100E-06,+5.2512562573E+00
+11.0200E-06,+6.0150753446E+00
+11.0300E-06,+2.4773869403E+00
+11.0400E-06,+4.6080401838E+00
+11.0500E-06,+5.5728642941E+00
+11.0600E-06,+4.6080401838E+00
+11.0700E-06,+3.6432160735E+00
+11.0800E-06,+3.2412060276E+00
+11.0900E-06,+4.7286431976E+00
+11.1000E-06,+4.7286431976E+00
+11.1100E-06,+4.7286431976E+00
+11.1200E-06,+4.6080401838E+00
+11.1300E-06,+4.9698492251E+00
+11.1400E-06,+4.9296482205E+00
+11.1500E-06,+2.3567839265E+00
+11.1600E-06,+4.7286431976E+00
+11.1700E-06,+3.4422110505E+00
+11.1800E-06,+4.3266331516E+00
+11.1900E-06,+4.0050251149E+00
+11.2000E-06,+2.3567839265E+00
+11.2100E-06,+4.3266331516E+00
+11.2200E-06,+4.6080401838E+00
+11.2300E-06,+4.6080401838E+00
+11.2400E-06,+4.7286431976E+00
+11.2500E-06,+4.8894472159E+00
+11.2600E-06,+2.5577889495E+00
+11.2700E-06,+5.0100502297E+00
+11.2800E-06,+4.8090452068E+00
+11.2900E-06,+3.8844221011E+00
+11.3000E-06,+5.9748743400E+00
+11.3100E-06,+3.6030150689E+00
+11.3200E-06,+4.2462311424E+00
+11.3300E-06,+4.8090452068E+00
+11.3400E-06,+4.6080401838E+00
+11.3500E-06,+4.2864321470E+00
+11.3600E-06,+5.9748743400E+00
+11.3700E-06,+4.7286431976E+00
+11.3800E-06,+4.7688442022E+00
+11.3900E-06,+4.6080401838E+00
+11.4000E-06,+4.4070351608E+00
+11.4100E-06,+4.8090452068E+00
+11.4200E-06,+266.3316876E-03
+11.4300E-06,+4.6080401838E+00
+11.4400E-06,+5.7738693170E+00
+11.4500E-06,+266.3316876E-03
+11.4600E-06,+4.9296482205E+00
+11.4700E-06,+4.5678391792E+00
+11.4800E-06,+4.8090452068E+00
+11.4900E-06,+3.8442210965E+00
+11.5000E-06,+2.1155778989E+00
+11.5100E-06,+6.0954773538E+00
+11.5200E-06,+2.8391959816E+00
+11.5300E-06,+6.0954773538E+00
+11.5400E-06,+4.6080401838E+00
+11.5500E-06,+4.6080401838E+00
+11.5600E-06,+2.2763819173E+00
+11.5700E-06,+4.6080401838E+00
+11.5800E-06,+6.0954773538E+00
+11.5900E-06,+5.8944723308E+00
+11.6000E-06,+4.8492462113E+00
+11.6100E-06,+2.4371859357E+00
+11.6200E-06,+5.3718592711E+00
+11.6300E-06,+4.6884421930E+00
+11.6400E-06,+4.6482411884E+00
+11.6500E-06,+3.1608040184E+00
+11.6600E-06,+6.0954773538E+00
+11.6700E-06,+3.5628140643E+00
+11.6800E-06,+266.3316876E-03
+11.6900E-06,+5.6130652986E+00
+11.7000E-06,+5.9748743400E+00
+11.7100E-06,+3.9246231057E+00
+11.7200E-06,+5.1306532435E+00
+11.7300E-06,+5.7336683124E+00
+11.7400E-06,+1.8341708668E+00
+11.7500E-06,+4.6080401838E+00
+11.7600E-06,+266.3316876E-03
+11.7700E-06,+4.6080401838E+00
+11.7800E-06,+2.3567839265E+00
+11.7900E-06,+4.6080401838E+00
+11.8000E-06,+6.0954773538E+00
+11.8100E-06,+4.7688442022E+00
+11.8200E-06,+2.6381909586E+00
+11.8300E-06,+6.0954773538E+00
+11.8400E-06,+6.0954773538E+00
+11.8500E-06,+4.6080401838E+00
+11.8600E-06,+5.0502512343E+00
+11.8700E-06,+6.0552763492E+00
+11.8800E-06,+4.6080401838E+00
+11.8900E-06,+5.8542713262E+00
+11.9000E-06,+5.0904522389E+00
+11.9100E-06,+4.8492462113E+00
+11.9200E-06,+266.3316876E-03
+11.9300E-06,+5.4924622849E+00
+11.9400E-06,+4.6482411884E+00
+11.9500E-06,+4.6080401838E+00
+11.9600E-06,+5.7738693170E+00
+11.9700E-06,+5.9748743400E+00
+11.9800E-06,+2.2361809127E+00
+11.9900E-06,+5.7738693170E+00
+12.0000E-06,+3.3618090414E+00
+12.0100E-06,+4.6080401838E+00
+12.0200E-06,+2.7587939724E+00
+12.0300E-06,+266.3316876E-03
+12.0400E-06,+4.8492462113E+00
+12.0500E-06,+4.7286431976E+00
+12.0600E-06,+4.9698492251E+00
+12.0700E-06,+4.1658291332E+00
+12.0800E-06,+266.3316876E-03
+12.0900E-06,+4.6080401838E+00
+12.1000E-06,+4.8090452068E+00
+12.1100E-06,+4.8090452068E+00
+12.1200E-06,+4.6482411884E+00
+12.1300E-06,+5.7738693170E+00
+12.1400E-06,+6.0552763492E+00
+12.1500E-06,+266.3316876E-03
+12.1600E-06,+4.5678391792E+00
+12.1700E-06,+4.6080401838E+00
+12.1800E-06,+5.2512562573E+00
+12.1900E-06,+4.7286431976E+00
+12.2000E-06,+5.9346733354E+00
+12.2100E-06,+6.0954773538E+00
+12.2200E-06,+5.8140703216E+00
+12.2300E-06,+2.4371859357E+00
+12.2400E-06,+266.3316876E-03
+12.2500E-06,+4.6080401838E+00
+12.2600E-06,+4.7286431976E+00
+12.2700E-06,+6.0954773538E+00
+12.2800E-06,+5.0100502297E+00
+12.2900E-06,+4.2462311424E+00
+12.3000E-06,+5.3316582665E+00
+12.3100E-06,+5.7336683124E+00
+12.3200E-06,+4.8894472159E+00
+12.3300E-06,+5.9748743400E+00
+12.3400E-06,+5.1306532435E+00
+12.3500E-06,+5.4924622849E+00
+12.3600E-06,+2.2361809127E+00
+12.3700E-06,+5.0100502297E+00
+12.3800E-06,+4.8894472159E+00
+12.3900E-06,+6.0552763492E+00
+12.4000E-06,+266.3316876E-03
+12.4100E-06,+5.8140703216E+00
+12.4200E-06,+4.8894472159E+00
+12.4300E-06,+266.3316876E-03
+12.4400E-06,+266.3316876E-03
+12.4500E-06,+2.3567839265E+00
+12.4600E-06,+4.6080401838E+00
+12.4700E-06,+5.1306532435E+00
+12.4800E-06,+4.7286431976E+00
+12.4900E-06,+2.3969849311E+00
+12.5000E-06,+5.8542713262E+00
+12.5100E-06,+4.6080401838E+00
+12.5200E-06,+5.1306532435E+00
+12.5300E-06,+4.7286431976E+00
+12.5400E-06,+4.0452261195E+00
+12.5500E-06,+1.9949748851E+00
+12.5600E-06,+4.3266331516E+00
+12.5700E-06,+2.7587939724E+00
+12.5800E-06,+4.6080401838E+00
+12.5900E-06,+4.5678391792E+00
+12.6000E-06,+5.9748743400E+00
+12.6100E-06,+4.6080401838E+00
+12.6200E-06,+4.6080401838E+00
+12.6300E-06,+6.0552763492E+00
+12.6400E-06,+5.9748743400E+00
+12.6500E-06,+4.6080401838E+00
+12.6600E-06,+4.8894472159E+00
+12.6700E-06,+3.5226130597E+00
+12.6800E-06,+3.5226130597E+00
+12.6900E-06,+4.6080401838E+00
+12.7000E-06,+6.0150753446E+00
+12.7100E-06,-1.0603014641E+00
+12.7200E-06,+2.3567839265E+00
+12.7300E-06,+5.0502512343E+00
+12.7400E-06,+5.2110552527E+00
+12.7500E-06,+4.6080401838E+00
+12.7600E-06,+2.6381909586E+00
+12.7700E-06,+4.7286431976E+00
+12.7800E-06,+266.3316876E-03
+12.7900E-06,+5.0904522389E+00
+12.8000E-06,+5.0100502297E+00
+12.8100E-06,+4.0854271241E+00
+12.8200E-06,+4.7286431976E+00
+12.8300E-06,+4.8492462113E+00
+12.8400E-06,+6.0954773538E+00
+12.8500E-06,+4.6080401838E+00
+12.8600E-06,+6.0552763492E+00
+12.8700E-06,+4.6080401838E+00
+12.8800E-06,+2.9195979908E+00
+12.8900E-06,+266.3316876E-03
+12.9000E-06,+6.0954773538E+00
+12.9100E-06,+5.8542713262E+00
+12.9200E-06,+5.6130652986E+00
+12.9300E-06,+4.7286431976E+00
+12.9400E-06,+5.8944723308E+00
+12.9500E-06,+4.6482411884E+00
+12.9600E-06,+4.6080401838E+00
+12.9700E-06,+4.8894472159E+00
+12.9800E-06,+4.8090452068E+00
+12.9900E-06,+1.9547738805E+00
+13.0000E-06,+5.9748743400E+00
+13.0100E-06,+5.8140703216E+00
+13.0200E-06,+4.6080401838E+00
+13.0300E-06,+4.8090452068E+00
+13.0400E-06,+266.3316876E-03
+13.0500E-06,+4.7286431976E+00
+13.0600E-06,+4.7286431976E+00
+13.0700E-06,+6.0552763492E+00
+13.0800E-06,+4.1658291332E+00
+13.0900E-06,+3.4422110505E+00
+13.1000E-06,+4.5678391792E+00
+13.1100E-06,+266.3316876E-03
+13.1200E-06,+4.7688442022E+00
+13.1300E-06,+4.6080401838E+00
+13.1400E-06,+4.7688442022E+00
+13.1500E-06,+5.4120602757E+00
+13.1600E-06,+5.0100502297E+00
+13.1700E-06,+4.7688442022E+00
+13.1800E-06,+2.5979899541E+00
+13.1900E-06,+3.3618090414E+00
+13.2000E-06,+6.0954773538E+00
+13.2100E-06,+4.6080401838E+00
+13.2200E-06,+3.0804020092E+00
+13.2300E-06,+4.6080401838E+00
+13.2400E-06,+5.8542713262E+00
+13.2500E-06,+4.7688442022E+00
+13.2600E-06,+3.7236180827E+00
+13.2700E-06,+4.8090452068E+00
+13.2800E-06,+4.7286431976E+00
+13.2900E-06,+4.9698492251E+00
+13.3000E-06,+4.6080401838E+00
+13.3100E-06,+5.6532663032E+00
+13.3200E-06,+5.1306532435E+00
+13.3300E-06,+4.7286431976E+00
+13.3400E-06,+4.9296482205E+00
+13.3500E-06,+4.6482411884E+00
+13.3600E-06,+4.6080401838E+00
+13.3700E-06,+4.6080401838E+00
+13.3800E-06,+5.7336683124E+00
+13.3900E-06,+2.1959799081E+00
+13.4000E-06,+4.6080401838E+00
+13.4100E-06,+4.7688442022E+00
+13.4200E-06,+4.6080401838E+00
+13.4300E-06,+4.7688442022E+00
+13.4400E-06,+5.8140703216E+00
+13.4500E-06,+5.0100502297E+00
+13.4600E-06,+4.8090452068E+00
+13.4700E-06,+4.6080401838E+00
+13.4800E-06,+5.8140703216E+00
+13.4900E-06,+5.3316582665E+00
+13.5000E-06,+266.3316876E-03
+13.5100E-06,+4.8492462113E+00
+13.5200E-06,+266.3316876E-03
+13.5300E-06,+4.7688442022E+00
+13.5400E-06,+4.5678391792E+00
+13.5500E-06,+5.0100502297E+00
+13.5600E-06,+4.9296482205E+00
+13.5700E-06,+5.8140703216E+00
+13.5800E-06,+4.0854271241E+00
+13.5900E-06,+5.6130652986E+00
+13.6000E-06,+2.9195979908E+00
+13.6100E-06,+4.8492462113E+00
+13.6200E-06,+4.6080401838E+00
+13.6300E-06,+5.9748743400E+00
+13.6400E-06,+4.5678391792E+00
+13.6500E-06,+266.3316876E-03
+13.6600E-06,+266.3316876E-03
+13.6700E-06,+4.6080401838E+00
+13.6800E-06,+4.6080401838E+00
+13.6900E-06,+4.6080401838E+00
+13.7000E-06,+4.7286431976E+00
+13.7100E-06,+5.5728642941E+00
+13.7200E-06,+2.0753768943E+00
+13.7300E-06,+5.6130652986E+00
+13.7400E-06,+4.0050251149E+00
+13.7500E-06,+2.5979899541E+00
+13.7600E-06,+5.7738693170E+00
+13.7700E-06,+6.1356783584E+00
+13.7800E-06,+5.3718592711E+00
+13.7900E-06,+3.6432160735E+00
+13.8000E-06,+3.8442210965E+00
+13.8100E-06,+5.2914572619E+00
+13.8200E-06,+5.3316582665E+00
+13.8300E-06,+2.4773869403E+00
+13.8400E-06,+5.8944723308E+00
+13.8500E-06,+266.3316876E-03
+13.8600E-06,+4.7688442022E+00
+13.8700E-06,+6.0150753446E+00
+13.8800E-06,+5.5326632895E+00
+13.8900E-06,+4.9296482205E+00
+13.9000E-06,+5.8542713262E+00
+13.9100E-06,+4.5678391792E+00
+13.9200E-06,+4.7688442022E+00
+13.9300E-06,+266.3316876E-03
+13.9400E-06,+3.8844221011E+00
+13.9500E-06,+266.3316876E-03
+13.9600E-06,+4.6482411884E+00
+13.9700E-06,+4.9698492251E+00
+13.9800E-06,+266.3316876E-03
+13.9900E-06,+4.6080401838E+00
+14.0000E-06,+5.7336683124E+00
+14.0100E-06,+4.8492462113E+00
+14.0200E-06,+5.8542713262E+00
+14.0300E-06,+5.8140703216E+00
+14.0400E-06,+4.7286431976E+00
+14.0500E-06,+2.9195979908E+00
+14.0600E-06,+4.7688442022E+00
+14.0700E-06,+4.6080401838E+00
+14.0800E-06,+266.3316876E-03
+14.0900E-06,+4.5678391792E+00
+14.1000E-06,+3.0402010046E+00
+14.1100E-06,+5.8140703216E+00
+14.1200E-06,+6.0954773538E+00
+14.1300E-06,+4.6884421930E+00
+14.1400E-06,+4.7688442022E+00
+14.1500E-06,+4.7286431976E+00
+14.1600E-06,+5.6934673078E+00
+14.1700E-06,+4.5678391792E+00
+14.1800E-06,+4.5678391792E+00
+14.1900E-06,+306.5326922E-03
+14.2000E-06,+5.8140703216E+00
+14.2100E-06,+2.6381909586E+00
+14.2200E-06,+5.7738693170E+00
+14.2300E-06,+5.7738693170E+00
+14.2400E-06,+4.6080401838E+00
+14.2500E-06,+5.8140703216E+00
+14.2600E-06,+6.0954773538E+00
+14.2700E-06,+5.7336683124E+00
+14.2800E-06,+6.0150753446E+00
+14.2900E-06,+5.4522612803E+00
+14.3000E-06,+4.8090452068E+00
+14.3100E-06,+4.7688442022E+00
+14.3200E-06,+2.3969849311E+00
+14.3300E-06,+4.6080401838E+00
+14.3400E-06,+3.2412060276E+00
+14.3500E-06,+4.9296482205E+00
+14.3600E-06,+4.6884421930E+00
+14.3700E-06,+4.7688442022E+00
+14.3800E-06,+3.6432160735E+00
+14.3900E-06,+5.8542713262E+00
+14.4000E-06,+4.7286431976E+00
+14.4100E-06,+5.6934673078E+00
+14.4200E-06,+6.0552763492E+00
+14.4300E-06,+4.7286431976E+00
+14.4400E-06,+4.5678391792E+00
+14.4500E-06,+266.3316876E-03
+14.4600E-06,+4.6884421930E+00
+14.4700E-06,+3.0402010046E+00
+14.4800E-06,+4.6080401838E+00
+14.4900E-06,+5.9748743400E+00
+14.5000E-06,+5.9346733354E+00
+14.5100E-06,+266.3316876E-03
+14.5200E-06,+6.0552763492E+00
+14.5300E-06,+6.0954773538E+00
+14.5400E-06,+266.3316876E-03
+14.5500E-06,+4.8492462113E+00
+14.5600E-06,+4.6080401838E+00
+14.5700E-06,+4.4070351608E+00
+14.5800E-06,+6.0552763492E+00
+14.5900E-06,+5.6130652986E+00
+14.6000E-06,+266.3316876E-03
+14.6100E-06,+5.0100502297E+00
+14.6200E-06,+5.9748743400E+00
+14.6300E-06,+5.5326632895E+00
+14.6400E-06,+5.9748743400E+00
+14.6500E-06,+6.0150753446E+00
+14.6600E-06,+2.3567839265E+00
+14.6700E-06,+4.7688442022E+00
+14.6800E-06,+4.9698492251E+00
+14.6900E-06,+4.7286431976E+00
+14.7000E-06,+5.0502512343E+00
+14.7100E-06,+4.7286431976E+00
+14.7200E-06,+4.7286431976E+00
+14.7300E-06,+4.7286431976E+00
+14.7400E-06,+5.9748743400E+00
+14.7500E-06,+5.6130652986E+00
+14.7600E-06,+5.0502512343E+00
+14.7700E-06,+6.0954773538E+00
+14.7800E-06,+1.9949748851E+00
+14.7900E-06,+5.6532663032E+00
+14.8000E-06,+2.3165829219E+00
+14.8100E-06,+4.7688442022E+00
+14.8200E-06,+5.3316582665E+00
+14.8300E-06,+4.7688442022E+00
+14.8400E-06,+3.5628140643E+00
+14.8500E-06,+2.7989949770E+00
+14.8600E-06,+4.6080401838E+00
+14.8700E-06,+2.3567839265E+00
+14.8800E-06,+4.7688442022E+00
+14.8900E-06,+266.3316876E-03
+14.9000E-06,+5.1306532435E+00
+14.9100E-06,+266.3316876E-03
+14.9200E-06,+5.8542713262E+00
+14.9300E-06,+4.8492462113E+00
+14.9400E-06,+6.0954773538E+00
+14.9500E-06,+6.0954773538E+00
+14.9600E-06,+3.0804020092E+00
+14.9700E-06,+4.7286431976E+00
+14.9800E-06,+266.3316876E-03
+14.9900E-06,+266.3316876E-03
+15.0000E-06,+6.0954773538E+00
+15.0100E-06,+4.6080401838E+00
+15.0200E-06,+5.6532663032E+00
+15.0300E-06,+4.8492462113E+00
+15.0400E-06,+266.3316876E-03
+15.0500E-06,+266.3316876E-03
+15.0600E-06,+5.8140703216E+00
+15.0700E-06,+5.8140703216E+00
+15.0800E-06,+5.2512562573E+00
+15.0900E-06,+5.5326632895E+00
+15.1000E-06,+266.3316876E-03
+15.1100E-06,+306.5326922E-03
+15.1200E-06,+4.5678391792E+00
+15.1300E-06,+2.5577889495E+00
+15.1400E-06,+2.1155778989E+00
+15.1500E-06,+3.0402010046E+00
+15.1600E-06,+3.9648241103E+00
+15.1700E-06,+4.6080401838E+00
+15.1800E-06,+266.3316876E-03
+15.1900E-06,+4.8492462113E+00
+15.2000E-06,+6.0954773538E+00
+15.2100E-06,+4.6080401838E+00
+15.2200E-06,+4.6884421930E+00
+15.2300E-06,+3.0402010046E+00
+15.2400E-06,+2.5979899541E+00
+15.2500E-06,+4.8492462113E+00
+15.2600E-06,+5.0502512343E+00
+15.2700E-06,+5.2110552527E+00
+15.2800E-06,+4.6482411884E+00
+15.2900E-06,+5.8944723308E+00
+15.3000E-06,+266.3316876E-03
+15.3100E-06,+266.3316876E-03
+15.3200E-06,+6.0954773538E+00
+15.3300E-06,+5.9748743400E+00
+15.3400E-06,+266.3316876E-03
+15.3500E-06,+3.7638190873E+00
+15.3600E-06,+6.0954773538E+00
+15.3700E-06,+4.4070351608E+00
+15.3800E-06,+2.8391959816E+00
+15.3900E-06,+4.7688442022E+00
+15.4000E-06,+4.8492462113E+00
+15.4100E-06,+3.4824120551E+00
+15.4200E-06,+5.4120602757E+00
+15.4300E-06,+266.3316876E-03
+15.4400E-06,+2.4371859357E+00
+15.4500E-06,+4.6080401838E+00
+15.4600E-06,+4.8090452068E+00
+15.4700E-06,+5.3718592711E+00
+15.4800E-06,+266.3316876E-03
+15.4900E-06,+266.3316876E-03
+15.5000E-06,+5.2914572619E+00
+15.5100E-06,+4.6080401838E+00
+15.5200E-06,+4.8492462113E+00
+15.5300E-06,+5.0100502297E+00
+15.5400E-06,+4.6482411884E+00
+15.5500E-06,+2.2361809127E+00
+15.5600E-06,+4.8090452068E+00
+15.5700E-06,+2.8391959816E+00
+15.5800E-06,+4.6080401838E+00
+15.5900E-06,+5.8542713262E+00
+15.6000E-06,+4.7286431976E+00
+15.6100E-06,+6.0954773538E+00
+15.6200E-06,+5.7336683124E+00
+15.6300E-06,+5.2512562573E+00
+15.6400E-06,+3.2010050230E+00
+15.6500E-06,+4.6080401838E+00
+15.6600E-06,+4.6080401838E+00
+15.6700E-06,+3.4824120551E+00
+15.6800E-06,+4.4472361654E+00
+15.6900E-06,+4.8090452068E+00
+15.7000E-06,+266.3316876E-03
+15.7100E-06,+266.3316876E-03
+15.7200E-06,+3.8040200919E+00
+15.7300E-06,+4.6482411884E+00
+15.7400E-06,+5.9748743400E+00
+15.7500E-06,+5.7738693170E+00
+15.7600E-06,+6.0150753446E+00
+15.7700E-06,+5.4120602757E+00
+15.7800E-06,+5.2512562573E+00
+15.7900E-06,+4.6080401838E+00
+15.8000E-06,+4.6080401838E+00
+15.8100E-06,+4.6080401838E+00
+15.8200E-06,+4.6884421930E+00
+15.8300E-06,+6.0954773538E+00
+15.8400E-06,+6.0954773538E+00
+15.8500E-06,+5.7336683124E+00
+15.8600E-06,+2.2361809127E+00
+15.8700E-06,+6.0954773538E+00
+15.8800E-06,+2.4773869403E+00
+15.8900E-06,+5.0100502297E+00
+15.9000E-06,+4.6080401838E+00
+15.9100E-06,+5.5728642941E+00
+15.9200E-06,+4.8492462113E+00
+15.9300E-06,+3.7638190873E+00
+15.9400E-06,+266.3316876E-03
+15.9500E-06,+3.2814070322E+00
+15.9600E-06,+4.0854271241E+00
+15.9700E-06,+4.6080401838E+00
+15.9800E-06,+6.0954773538E+00
+15.9900E-06,+3.6030150689E+00
+16.0000E-06,+5.9346733354E+00
+16.0100E-06,+6.0552763492E+00
+16.0200E-06,+5.7738693170E+00
+16.0300E-06,+5.2110552527E+00
+16.0400E-06,+4.6080401838E+00
+16.0500E-06,+4.9296482205E+00
+16.0600E-06,+266.3316876E-03
+16.0700E-06,+4.6080401838E+00
+16.0800E-06,+5.6532663032E+00
+16.0900E-06,+4.9698492251E+00
+16.1000E-06,+4.8090452068E+00
+16.1100E-06,+4.6080401838E+00
+16.1200E-06,+5.7738693170E+00
+16.1300E-06,+4.6080401838E+00
+16.1400E-06,+4.8492462113E+00
+16.1500E-06,+4.8492462113E+00
+16.1600E-06,+4.6080401838E+00
+16.1700E-06,+5.5728642941E+00
+16.1800E-06,+4.7286431976E+00
+16.1900E-06,+5.2110552527E+00
+16.2000E-06,+4.6482411884E+00
+16.2100E-06,+5.9346733354E+00
+16.2200E-06,+5.0502512343E+00
+16.2300E-06,+5.0100502297E+00
+16.2400E-06,+5.7336683124E+00
+16.2500E-06,+2.5175879449E+00
+16.2600E-06,+5.8542713262E+00
+16.2700E-06,+4.8090452068E+00
+16.2800E-06,+4.7286431976E+00
+16.2900E-06,+3.6432160735E+00
+16.3000E-06,+5.4924622849E+00
+16.3100E-06,+6.0552763492E+00
+16.3200E-06,+4.7286431976E+00
+16.3300E-06,+2.8793969862E+00
+16.3400E-06,+3.1206030138E+00
+16.3500E-06,+4.6080401838E+00
+16.3600E-06,+4.8492462113E+00
+16.3700E-06,+5.9748743400E+00
+16.3800E-06,+4.6080401838E+00
+16.3900E-06,+266.3316876E-03
+16.4000E-06,+5.0904522389E+00
+16.4100E-06,+5.3316582665E+00
+16.4200E-06,+6.0954773538E+00
+16.4300E-06,+4.6482411884E+00
+16.4400E-06,+4.8090452068E+00
+16.4500E-06,+6.0552763492E+00
+16.4600E-06,+1.3115578070E+00
+16.4700E-06,+4.7286431976E+00
+16.4800E-06,+5.7738693170E+00
+16.4900E-06,+4.3266331516E+00
+16.5000E-06,+4.6080401838E+00
+16.5100E-06,+2.7989949770E+00
+16.5200E-06,+3.4824120551E+00
+16.5300E-06,+4.7286431976E+00
+16.5400E-06,+6.0954773538E+00
+16.5500E-06,+4.4874371700E+00
+16.5600E-06,+4.6482411884E+00
+16.5700E-06,+266.3316876E-03
+16.5800E-06,+4.7286431976E+00
+16.5900E-06,+4.7286431976E+00
+16.6000E-06,+4.6080401838E+00
+16.6100E-06,+4.5678391792E+00
+16.6200E-06,+4.7286431976E+00
+16.6300E-06,+1.2713568024E+00
+16.6400E-06,+5.8140703216E+00
+16.6500E-06,+4.7688442022E+00
+16.6600E-06,+4.5678391792E+00
+16.6700E-06,+4.7688442022E+00
+16.6800E-06,+4.6080401838E+00
+16.6900E-06,+266.3316876E-03
+16.7000E-06,+4.6080401838E+00
+16.7100E-06,+5.6130652986E+00
+16.7200E-06,+5.9346733354E+00
+16.7300E-06,+5.7336683124E+00
+16.7400E-06,+5.7336683124E+00
+16.7500E-06,+266.3316876E-03
+16.7600E-06,+4.3668341562E+00
+16.7700E-06,+5.8542713262E+00
+16.7800E-06,+3.3216080368E+00
+16.7900E-06,+4.6884421930E+00
+16.8000E-06,+6.0954773538E+00
+16.8100E-06,+4.7286431976E+00
+16.8200E-06,+5.8542713262E+00
+16.8300E-06,+4.6080401838E+00
+16.8400E-06,+6.0552763492E+00
+16.8500E-06,+5.8944723308E+00
+16.8600E-06,+5.6934673078E+00
+16.8700E-06,+5.7336683124E+00
+16.8800E-06,+266.3316876E-03
+16.8900E-06,+4.9296482205E+00
+16.9000E-06,+6.0954773538E+00
+16.9100E-06,+6.0954773538E+00
+16.9200E-06,+5.1306532435E+00
+16.9300E-06,+6.0954773538E+00
+16.9400E-06,+306.5326922E-03
+16.9500E-06,+4.6080401838E+00
+16.9600E-06,+4.7688442022E+00
+16.9700E-06,+4.8492462113E+00
+16.9800E-06,+5.4120602757E+00
+16.9900E-06,+4.7286431976E+00
+17.0000E-06,+4.6080401838E+00
+17.0100E-06,+6.0552763492E+00
+17.0200E-06,+5.0100502297E+00
+17.0300E-06,+4.6884421930E+00
+17.0400E-06,+4.6080401838E+00
+17.0500E-06,+2.4773869403E+00
+17.0600E-06,+4.6080401838E+00
+17.0700E-06,+4.5678391792E+00
+17.0800E-06,+6.0954773538E+00
+17.0900E-06,+4.6080401838E+00
+17.1000E-06,+5.8944723308E+00
+17.1100E-06,+5.8542713262E+00
+17.1200E-06,+2.1557789035E+00
+17.1300E-06,+5.8542713262E+00
+17.1400E-06,+266.3316876E-03
+17.1500E-06,+4.5678391792E+00
+17.1600E-06,+6.0954773538E+00
+17.1700E-06,+266.3316876E-03
+17.1800E-06,+4.6080401838E+00
+17.1900E-06,+5.9748743400E+00
+17.2000E-06,+4.9296482205E+00
+17.2100E-06,+4.7286431976E+00
+17.2200E-06,+4.7286431976E+00
+17.2300E-06,+6.0954773538E+00
+17.2400E-06,+5.9346733354E+00
+17.2500E-06,+3.2814070322E+00
+17.2600E-06,+5.8140703216E+00
+17.2700E-06,+5.7738693170E+00
+17.2800E-06,+5.1306532435E+00
+17.2900E-06,+4.6080401838E+00
+17.3000E-06,+4.4472361654E+00
+17.3100E-06,+4.7688442022E+00
+17.3200E-06,+4.6080401838E+00
+17.3300E-06,+2.1557789035E+00
+17.3400E-06,+5.3718592711E+00
+17.3500E-06,+266.3316876E-03
+17.3600E-06,+4.7688442022E+00
+17.3700E-06,+2.8391959816E+00
+17.3800E-06,+4.0050251149E+00
+17.3900E-06,+6.0552763492E+00
+17.4000E-06,+4.8090452068E+00
+17.4100E-06,+5.9346733354E+00
+17.4200E-06,+5.9748743400E+00
+17.4300E-06,+5.9346733354E+00
+17.4400E-06,+5.8542713262E+00
+17.4500E-06,+5.1708542481E+00
+17.4600E-06,+4.6080401838E+00
+17.4700E-06,+2.0753768943E+00
+17.4800E-06,+6.0954773538E+00
+17.4900E-06,+4.7286431976E+00
+17.5000E-06,+6.0552763492E+00
+17.5100E-06,+266.3316876E-03
+17.5200E-06,+4.8090452068E+00
+17.5300E-06,+4.7286431976E+00
+17.5400E-06,+4.6080401838E+00
+17.5500E-06,+5.9748743400E+00
+17.5600E-06,+4.6080401838E+00
+17.5700E-06,+4.5678391792E+00
+17.5800E-06,+3.9246231057E+00
+17.5900E-06,+4.8090452068E+00
+17.6000E-06,+3.8442210965E+00
+17.6100E-06,+4.7286431976E+00
+17.6200E-06,+5.8542713262E+00
+17.6300E-06,+2.1959799081E+00
+17.6400E-06,+4.6080401838E+00
+17.6500E-06,+3.6834170781E+00
+17.6600E-06,+6.0552763492E+00
+17.6700E-06,+5.9346733354E+00
+17.6800E-06,+4.8090452068E+00
+17.6900E-06,+5.8944723308E+00
+17.7000E-06,+266.3316876E-03
+17.7100E-06,+4.7688442022E+00
+17.7200E-06,+3.9648241103E+00
+17.7300E-06,+2.1557789035E+00
+17.7400E-06,+4.6080401838E+00
+17.7500E-06,+5.3316582665E+00
+17.7600E-06,+266.3316876E-03
+17.7700E-06,+6.0552763492E+00
+17.7800E-06,+4.7286431976E+00
+17.7900E-06,+5.1708542481E+00
+17.8000E-06,+266.3316876E-03
+17.8100E-06,+4.7688442022E+00
+17.8200E-06,+4.7286431976E+00
+17.8300E-06,+5.2110552527E+00
+17.8400E-06,+5.9748743400E+00
+17.8500E-06,+5.8140703216E+00
+17.8600E-06,+2.5175879449E+00
+17.8700E-06,+266.3316876E-03
+17.8800E-06,+4.6080401838E+00
+17.8900E-06,+5.3718592711E+00
+17.9000E-06,+2.6381909586E+00
+17.9100E-06,+4.7286431976E+00
+17.9200E-06,+5.9346733354E+00
+17.9300E-06,+4.2462311424E+00
+17.9400E-06,+6.0552763492E+00
+17.9500E-06,+4.6080401838E+00
+17.9600E-06,+5.3718592711E+00
+17.9700E-06,+4.7286431976E+00
+17.9800E-06,+6.0150753446E+00
+17.9900E-06,+4.6080401838E+00
